lab5/5_PCCounter/simulation/qsim/lab505PCcnt.msim.vcd
$comment
	File created using the following command:
		vcd file lab505PCcnt.msim.vcd -direction
$end
$date
	Tue Dec 03 14:18:14 2024
$end
$version
	ModelSim Version 10.5b
$end
$timescale
	1ps
$end

$scope module lab505PCcnt_vlg_vec_tst $end
$var reg 1 ! CLK $end
$var reg 16 " PC_BASE [15:0] $end
$var reg 1 # PC_EN $end
$var reg 1 $ PC_LOAD $end
$var reg 8 % PC_OFFSET [7:0] $end
$var reg 1 & PC_SEL $end
$var reg 1 ' RST $end
$var wire 1 ( Q [15] $end
$var wire 1 ) Q [14] $end
$var wire 1 * Q [13] $end
$var wire 1 + Q [12] $end
$var wire 1 , Q [11] $end
$var wire 1 - Q [10] $end
$var wire 1 . Q [9] $end
$var wire 1 / Q [8] $end
$var wire 1 0 Q [7] $end
$var wire 1 1 Q [6] $end
$var wire 1 2 Q [5] $end
$var wire 1 3 Q [4] $end
$var wire 1 4 Q [3] $end
$var wire 1 5 Q [2] $end
$var wire 1 6 Q [1] $end
$var wire 1 7 Q [0] $end

$scope module i1 $end
$var wire 1 8 gnd $end
$var wire 1 9 vcc $end
$var wire 1 : unknown $end
$var tri1 1 ; devclrn $end
$var tri1 1 < devpor $end
$var tri1 1 = devoe $end
$var wire 1 > Q[15]~output_o $end
$var wire 1 ? Q[14]~output_o $end
$var wire 1 @ Q[13]~output_o $end
$var wire 1 A Q[12]~output_o $end
$var wire 1 B Q[11]~output_o $end
$var wire 1 C Q[10]~output_o $end
$var wire 1 D Q[9]~output_o $end
$var wire 1 E Q[8]~output_o $end
$var wire 1 F Q[7]~output_o $end
$var wire 1 G Q[6]~output_o $end
$var wire 1 H Q[5]~output_o $end
$var wire 1 I Q[4]~output_o $end
$var wire 1 J Q[3]~output_o $end
$var wire 1 K Q[2]~output_o $end
$var wire 1 L Q[1]~output_o $end
$var wire 1 M Q[0]~output_o $end
$var wire 1 N CLK~input_o $end
$var wire 1 O CLK~inputclkctrl_outclk $end
$var wire 1 P inst3|LPM_COUNTER_component|auto_generated|counter_comb_bita0~combout $end
$var wire 1 Q PC_SEL~input_o $end
$var wire 1 R inst2|LPM_MUX_component|auto_generated|result_node[0]~15_combout $end
$var wire 1 S PC_OFFSET[0]~input_o $end
$var wire 1 T PC_BASE[0]~input_o $end
$var wire 1 U inst|LPM_ADD_SUB_component|auto_generated|result[0]~0_combout $end
$var wire 1 V inst1|LPM_ADD_SUB_component|auto_generated|result[0]~0_combout $end
$var wire 1 W RST~input_o $end
$var wire 1 X RST~inputclkctrl_outclk $end
$var wire 1 Y PC_LOAD~input_o $end
$var wire 1 Z PC_EN~input_o $end
$var wire 1 [ inst3|LPM_COUNTER_component|auto_generated|_~0_combout $end
$var wire 1 \ inst3|LPM_COUNTER_component|auto_generated|counter_comb_bita0~COUT $end
$var wire 1 ] inst3|LPM_COUNTER_component|auto_generated|counter_comb_bita1~combout $end
$var wire 1 ^ PC_BASE[1]~input_o $end
$var wire 1 _ PC_OFFSET[1]~input_o $end
$var wire 1 ` inst|LPM_ADD_SUB_component|auto_generated|result[0]~1 $end
$var wire 1 a inst|LPM_ADD_SUB_component|auto_generated|result[1]~2_combout $end
$var wire 1 b inst2|LPM_MUX_component|auto_generated|result_node[1]~14_combout $end
$var wire 1 c inst1|LPM_ADD_SUB_component|auto_generated|result[0]~1 $end
$var wire 1 d inst1|LPM_ADD_SUB_component|auto_generated|result[1]~2_combout $end
$var wire 1 e inst3|LPM_COUNTER_component|auto_generated|counter_comb_bita1~COUT $end
$var wire 1 f inst3|LPM_COUNTER_component|auto_generated|counter_comb_bita2~combout $end
$var wire 1 g inst2|LPM_MUX_component|auto_generated|result_node[2]~13_combout $end
$var wire 1 h PC_BASE[2]~input_o $end
$var wire 1 i PC_OFFSET[2]~input_o $end
$var wire 1 j inst|LPM_ADD_SUB_component|auto_generated|result[1]~3 $end
$var wire 1 k inst|LPM_ADD_SUB_component|auto_generated|result[2]~4_combout $end
$var wire 1 l inst1|LPM_ADD_SUB_component|auto_generated|result[1]~3 $end
$var wire 1 m inst1|LPM_ADD_SUB_component|auto_generated|result[2]~4_combout $end
$var wire 1 n inst3|LPM_COUNTER_component|auto_generated|counter_comb_bita2~COUT $end
$var wire 1 o inst3|LPM_COUNTER_component|auto_generated|counter_comb_bita3~combout $end
$var wire 1 p PC_BASE[3]~input_o $end
$var wire 1 q PC_OFFSET[3]~input_o $end
$var wire 1 r inst|LPM_ADD_SUB_component|auto_generated|result[2]~5 $end
$var wire 1 s inst|LPM_ADD_SUB_component|auto_generated|result[3]~6_combout $end
$var wire 1 t inst2|LPM_MUX_component|auto_generated|result_node[3]~12_combout $end
$var wire 1 u inst1|LPM_ADD_SUB_component|auto_generated|result[2]~5 $end
$var wire 1 v inst1|LPM_ADD_SUB_component|auto_generated|result[3]~6_combout $end
$var wire 1 w inst3|LPM_COUNTER_component|auto_generated|counter_comb_bita3~COUT $end
$var wire 1 x inst3|LPM_COUNTER_component|auto_generated|counter_comb_bita4~combout $end
$var wire 1 y PC_BASE[4]~input_o $end
$var wire 1 z PC_OFFSET[4]~input_o $end
$var wire 1 { inst|LPM_ADD_SUB_component|auto_generated|result[3]~7 $end
$var wire 1 | inst|LPM_ADD_SUB_component|auto_generated|result[4]~8_combout $end
$var wire 1 } inst2|LPM_MUX_component|auto_generated|result_node[4]~11_combout $end
$var wire 1 ~ inst1|LPM_ADD_SUB_component|auto_generated|result[3]~7 $end
$var wire 1 !! inst1|LPM_ADD_SUB_component|auto_generated|result[4]~8_combout $end
$var wire 1 "! inst3|LPM_COUNTER_component|auto_generated|counter_comb_bita4~COUT $end
$var wire 1 #! inst3|LPM_COUNTER_component|auto_generated|counter_comb_bita5~combout $end
$var wire 1 $! PC_OFFSET[5]~input_o $end
$var wire 1 %! PC_BASE[5]~input_o $end
$var wire 1 &! inst|LPM_ADD_SUB_component|auto_generated|result[4]~9 $end
$var wire 1 '! inst|LPM_ADD_SUB_component|auto_generated|result[5]~10_combout $end
$var wire 1 (! inst2|LPM_MUX_component|auto_generated|result_node[5]~10_combout $end
$var wire 1 )! inst1|LPM_ADD_SUB_component|auto_generated|result[4]~9 $end
$var wire 1 *! inst1|LPM_ADD_SUB_component|auto_generated|result[5]~10_combout $end
$var wire 1 +! inst3|LPM_COUNTER_component|auto_generated|counter_comb_bita5~COUT $end
$var wire 1 ,! inst3|LPM_COUNTER_component|auto_generated|counter_comb_bita6~combout $end
$var wire 1 -! PC_BASE[6]~input_o $end
$var wire 1 .! PC_OFFSET[6]~input_o $end
$var wire 1 /! inst|LPM_ADD_SUB_component|auto_generated|result[5]~11 $end
$var wire 1 0! inst|LPM_ADD_SUB_component|auto_generated|result[6]~12_combout $end
$var wire 1 1! inst2|LPM_MUX_component|auto_generated|result_node[6]~9_combout $end
$var wire 1 2! inst1|LPM_ADD_SUB_component|auto_generated|result[5]~11 $end
$var wire 1 3! inst1|LPM_ADD_SUB_component|auto_generated|result[6]~12_combout $end
$var wire 1 4! inst3|LPM_COUNTER_component|auto_generated|counter_comb_bita6~COUT $end
$var wire 1 5! inst3|LPM_COUNTER_component|auto_generated|counter_comb_bita7~combout $end
$var wire 1 6! PC_OFFSET[7]~input_o $end
$var wire 1 7! PC_BASE[7]~input_o $end
$var wire 1 8! inst|LPM_ADD_SUB_component|auto_generated|result[6]~13 $end
$var wire 1 9! inst|LPM_ADD_SUB_component|auto_generated|result[7]~14_combout $end
$var wire 1 :! inst2|LPM_MUX_component|auto_generated|result_node[7]~8_combout $end
$var wire 1 ;! inst1|LPM_ADD_SUB_component|auto_generated|result[6]~13 $end
$var wire 1 <! inst1|LPM_ADD_SUB_component|auto_generated|result[7]~14_combout $end
$var wire 1 =! inst3|LPM_COUNTER_component|auto_generated|counter_comb_bita7~COUT $end
$var wire 1 >! inst3|LPM_COUNTER_component|auto_generated|counter_comb_bita8~combout $end
$var wire 1 ?! PC_BASE[8]~input_o $end
$var wire 1 @! inst|LPM_ADD_SUB_component|auto_generated|result[7]~15 $end
$var wire 1 A! inst|LPM_ADD_SUB_component|auto_generated|result[8]~16_combout $end
$var wire 1 B! inst2|LPM_MUX_component|auto_generated|result_node[8]~7_combout $end
$var wire 1 C! inst1|LPM_ADD_SUB_component|auto_generated|result[7]~15 $end
$var wire 1 D! inst1|LPM_ADD_SUB_component|auto_generated|result[8]~16_combout $end
$var wire 1 E! inst3|LPM_COUNTER_component|auto_generated|counter_comb_bita8~COUT $end
$var wire 1 F! inst3|LPM_COUNTER_component|auto_generated|counter_comb_bita9~combout $end
$var wire 1 G! inst2|LPM_MUX_component|auto_generated|result_node[9]~6_combout $end
$var wire 1 H! PC_BASE[9]~input_o $end
$var wire 1 I! inst|LPM_ADD_SUB_component|auto_generated|result[8]~17 $end
$var wire 1 J! inst|LPM_ADD_SUB_component|auto_generated|result[9]~18_combout $end
$var wire 1 K! inst1|LPM_ADD_SUB_component|auto_generated|result[8]~17 $end
$var wire 1 L! inst1|LPM_ADD_SUB_component|auto_generated|result[9]~18_combout $end
$var wire 1 M! inst3|LPM_COUNTER_component|auto_generated|counter_comb_bita9~COUT $end
$var wire 1 N! inst3|LPM_COUNTER_component|auto_generated|counter_comb_bita10~combout $end
$var wire 1 O! inst2|LPM_MUX_component|auto_generated|result_node[10]~5_combout $end
$var wire 1 P! PC_BASE[10]~input_o $end
$var wire 1 Q! inst|LPM_ADD_SUB_component|auto_generated|result[9]~19 $end
$var wire 1 R! inst|LPM_ADD_SUB_component|auto_generated|result[10]~20_combout $end
$var wire 1 S! inst1|LPM_ADD_SUB_component|auto_generated|result[9]~19 $end
$var wire 1 T! inst1|LPM_ADD_SUB_component|auto_generated|result[10]~20_combout $end
$var wire 1 U! inst3|LPM_COUNTER_component|auto_generated|counter_comb_bita10~COUT $end
$var wire 1 V! inst3|LPM_COUNTER_component|auto_generated|counter_comb_bita11~combout $end
$var wire 1 W! inst2|LPM_MUX_component|auto_generated|result_node[11]~4_combout $end
$var wire 1 X! PC_BASE[11]~input_o $end
$var wire 1 Y! inst|LPM_ADD_SUB_component|auto_generated|result[10]~21 $end
$var wire 1 Z! inst|LPM_ADD_SUB_component|auto_generated|result[11]~22_combout $end
$var wire 1 [! inst1|LPM_ADD_SUB_component|auto_generated|result[10]~21 $end
$var wire 1 \! inst1|LPM_ADD_SUB_component|auto_generated|result[11]~22_combout $end
$var wire 1 ]! inst3|LPM_COUNTER_component|auto_generated|counter_comb_bita11~COUT $end
$var wire 1 ^! inst3|LPM_COUNTER_component|auto_generated|counter_comb_bita12~combout $end
$var wire 1 _! inst2|LPM_MUX_component|auto_generated|result_node[12]~3_combout $end
$var wire 1 `! PC_BASE[12]~input_o $end
$var wire 1 a! inst|LPM_ADD_SUB_component|auto_generated|result[11]~23 $end
$var wire 1 b! inst|LPM_ADD_SUB_component|auto_generated|result[12]~24_combout $end
$var wire 1 c! inst1|LPM_ADD_SUB_component|auto_generated|result[11]~23 $end
$var wire 1 d! inst1|LPM_ADD_SUB_component|auto_generated|result[12]~24_combout $end
$var wire 1 e! inst3|LPM_COUNTER_component|auto_generated|counter_comb_bita12~COUT $end
$var wire 1 f! inst3|LPM_COUNTER_component|auto_generated|counter_comb_bita13~combout $end
$var wire 1 g! PC_BASE[13]~input_o $end
$var wire 1 h! inst|LPM_ADD_SUB_component|auto_generated|result[12]~25 $end
$var wire 1 i! inst|LPM_ADD_SUB_component|auto_generated|result[13]~26_combout $end
$var wire 1 j! inst2|LPM_MUX_component|auto_generated|result_node[13]~2_combout $end
$var wire 1 k! inst1|LPM_ADD_SUB_component|auto_generated|result[12]~25 $end
$var wire 1 l! inst1|LPM_ADD_SUB_component|auto_generated|result[13]~26_combout $end
$var wire 1 m! inst3|LPM_COUNTER_component|auto_generated|counter_comb_bita13~COUT $end
$var wire 1 n! inst3|LPM_COUNTER_component|auto_generated|counter_comb_bita14~combout $end
$var wire 1 o! PC_BASE[14]~input_o $end
$var wire 1 p! inst|LPM_ADD_SUB_component|auto_generated|result[13]~27 $end
$var wire 1 q! inst|LPM_ADD_SUB_component|auto_generated|result[14]~28_combout $end
$var wire 1 r! inst2|LPM_MUX_component|auto_generated|result_node[14]~1_combout $end
$var wire 1 s! inst1|LPM_ADD_SUB_component|auto_generated|result[13]~27 $end
$var wire 1 t! inst1|LPM_ADD_SUB_component|auto_generated|result[14]~28_combout $end
$var wire 1 u! inst3|LPM_COUNTER_component|auto_generated|counter_comb_bita14~COUT $end
$var wire 1 v! inst3|LPM_COUNTER_component|auto_generated|counter_comb_bita15~combout $end
$var wire 1 w! inst2|LPM_MUX_component|auto_generated|result_node[15]~0_combout $end
$var wire 1 x! PC_BASE[15]~input_o $end
$var wire 1 y! inst|LPM_ADD_SUB_component|auto_generated|result[14]~29 $end
$var wire 1 z! inst|LPM_ADD_SUB_component|auto_generated|result[15]~30_combout $end
$var wire 1 {! inst1|LPM_ADD_SUB_component|auto_generated|result[14]~29 $end
$var wire 1 |! inst1|LPM_ADD_SUB_component|auto_generated|result[15]~30_combout $end
$var wire 1 }! inst3|LPM_COUNTER_component|auto_generated|counter_reg_bit [15] $end
$var wire 1 ~! inst3|LPM_COUNTER_component|auto_generated|counter_reg_bit [14] $end
$var wire 1 !" inst3|LPM_COUNTER_component|auto_generated|counter_reg_bit [13] $end
$var wire 1 "" inst3|LPM_COUNTER_component|auto_generated|counter_reg_bit [12] $end
$var wire 1 #" inst3|LPM_COUNTER_component|auto_generated|counter_reg_bit [11] $end
$var wire 1 $" inst3|LPM_COUNTER_component|auto_generated|counter_reg_bit [10] $end
$var wire 1 %" inst3|LPM_COUNTER_component|auto_generated|counter_reg_bit [9] $end
$var wire 1 &" inst3|LPM_COUNTER_component|auto_generated|counter_reg_bit [8] $end
$var wire 1 '" inst3|LPM_COUNTER_component|auto_generated|counter_reg_bit [7] $end
$var wire 1 (" inst3|LPM_COUNTER_component|auto_generated|counter_reg_bit [6] $end
$var wire 1 )" inst3|LPM_COUNTER_component|auto_generated|counter_reg_bit [5] $end
$var wire 1 *" inst3|LPM_COUNTER_component|auto_generated|counter_reg_bit [4] $end
$var wire 1 +" inst3|LPM_COUNTER_component|auto_generated|counter_reg_bit [3] $end
$var wire 1 ," inst3|LPM_COUNTER_component|auto_generated|counter_reg_bit [2] $end
$var wire 1 -" inst3|LPM_COUNTER_component|auto_generated|counter_reg_bit [1] $end
$var wire 1 ." inst3|LPM_COUNTER_component|auto_generated|counter_reg_bit [0] $end
$upscope $end
$upscope $end
$enddefinitions $end
#0
$dumpvars
0!
b10010 "
0#
0$
b101 %
0&
1'
07
06
05
04
03
02
01
00
0/
0.
0-
0,
0+
0*
0)
0(
08
19
x:
1;
1<
1=
0>
0?
0@
0A
0B
0C
0D
0E
0F
0G
0H
0I
0J
0K
0L
0M
0N
0O
1P
0Q
0R
1S
0T
1U
1V
1W
1X
0Y
0Z
0[
0\
0]
1^
0_
0`
1a
0b
0c
1d
1e
0f
0g
0h
1i
1j
1k
1l
1m
0n
0o
0p
0q
0r
0s
0t
0u
0v
1w
0x
1y
0z
1{
1|
0}
1~
1!!
0"!
0#!
0$!
0%!
0&!
0'!
0(!
0)!
0*!
1+!
0,!
0-!
0.!
1/!
00!
01!
12!
03!
04!
05!
06!
07!
08!
09!
0:!
0;!
0<!
1=!
0>!
0?!
1@!
0A!
0B!
1C!
0D!
0E!
0F!
0G!
0H!
0I!
0J!
0K!
0L!
1M!
0N!
0O!
0P!
1Q!
0R!
1S!
0T!
0U!
0V!
0W!
0X!
0Y!
0Z!
0[!
0\!
1]!
0^!
0_!
0`!
1a!
0b!
1c!
0d!
0e!
0f!
0g!
0h!
0i!
0j!
0k!
0l!
1m!
0n!
0o!
1p!
0q!
0r!
1s!
0t!
0u!
0v!
0w!
0x!
0y!
0z!
0{!
0|!
0."
0-"
0,"
0+"
0*"
0)"
0("
0'"
0&"
0%"
0$"
0#"
0""
0!"
0~!
0}!
$end
#5000
1!
1N
1O
#10000
0!
0N
0O
#15000
1!
1N
1O
#20000
0'
0!
0W
0N
0X
0O
#25000
1!
1N
1O
#30000
0!
0N
0O
#35000
1!
1N
1O
#40000
1#
0!
1Z
0N
0O
1[
#45000
1!
1N
1O
1."
1M
1\
17
0P
1]
#50000
0!
0N
0O
#55000
1!
1N
1O
1-"
0."
0M
1L
0e
0\
16
07
0]
1P
1e
1f
1]
0f
#60000
0!
0N
0O
#65000
1!
1N
1O
1."
1M
1\
17
0P
0e
0]
1f
#70000
0!
0N
0O
#75000
1!
1N
1O
1,"
0-"
0."
0M
0L
1K
1n
1e
0\
15
06
07
0f
1]
1P
0n
1o
1f
0]
0o
#80000
0!
0N
0O
#85000
1!
1N
1O
1."
1M
1\
17
0P
1]
#90000
0!
0N
0O
#95000
1!
1N
1O
1-"
0."
0M
1L
0e
0\
16
07
0]
1P
1n
1e
0f
1]
0n
1o
1f
0o
#100000
1$
0!
1Y
0N
0O
#105000
1!
1N
1O
1*"
1."
1M
1I
1\
13
17
1x
0P
0e
0]
1n
0f
1o
#110000
0!
0N
0O
#115000
1!
1N
1O
#120000
0!
0N
0O
#125000
1!
1N
1O
#130000
0!
0N
0O
#135000
1!
1N
1O
#140000
0!
0N
0O
#145000
1!
1N
1O
#150000
0!
0N
0O
#155000
1!
1N
1O
#160000
0!
0N
0O
#165000
1!
1N
1O
#170000
0!
0N
0O
#175000
1!
1N
1O
#180000
0!
0N
0O
#185000
1!
1N
1O
#190000
0!
0N
0O
#195000
1!
1N
1O
#200000
0!
0N
0O
#205000
1!
1N
1O
#210000
0!
0N
0O
#215000
1!
1N
1O
#220000
0!
0N
0O
#225000
1!
1N
1O
#230000
0!
0N
0O
#235000
1!
1N
1O
#240000
0!
0N
0O
#245000
1!
1N
1O
#250000
0!
0N
0O
#255000
1!
1N
1O
#260000
0!
0N
0O
#265000
1!
1N
1O
#270000
0!
0N
0O
#275000
1!
1N
1O
#280000
0!
0N
0O
#285000
1!
1N
1O
#290000
0!
0N
0O
#295000
1!
1N
1O
#300000
1&
0!
1Q
0N
0O
1}
1g
1b
1R
1)!
0!!
1u
0m
0l
0d
1c
0V
1*!
1v
1m
1d
#305000
1!
1N
1O
1)"
0*"
1+"
0."
0M
1J
0I
1H
1(!
0}
1t
0w
0R
0\
12
03
14
07
1#!
0x
0o
1P
02!
0*!
0)!
1!!
0~
0v
0c
1V
1e
1x
1]
13!
12!
1*!
1)!
0!!
0d
0n
1f
03!
02!
0*!
1w
1o
13!
0x
#310000
0!
0N
0O
#315000
1!
1N
1O
1("
0)"
0+"
0-"
1."
1M
0L
0J
0H
1G
11!
0(!
0t
0b
1R
1\
11
02
04
06
17
1,!
0#!
0o
0]
0P
1;!
03!
12!
1*!
1~
1v
1l
1d
1c
0V
1]
1<!
0;!
13!
0)!
1!!
0m
0l
0d
0<!
0*!
1m
#320000
0!
0N
0O
#325000
1!
1N
1O
1*"
1+"
0."
0M
1J
1I
1}
1t
0R
0\
13
14
07
1x
1o
1P
1)!
0!!
0~
0v
0c
1V
0]
1*!
1!!
1l
1d
0m
#330000
0!
0N
0O
#335000
1!
1N
1O
1)"
0+"
0,"
1-"
1."
1M
1L
0K
0J
1H
1(!
0t
0g
1b
1R
1\
12
04
05
16
17
1#!
0o
0f
1]
0P
02!
0*!
1~
1v
0u
1m
0l
0d
1c
0V
0e
0]
1;!
03!
0!!
0v
1u
0m
1d
1f
1<!
1v
#340000
0!
0N
0O
#345000
1!
1N
1O
1'"
0("
0)"
0*"
1+"
0."
0M
1J
0I
0H
0G
1F
1:!
01!
0(!
0}
1t
0R
0\
10
01
02
03
14
07
15!
0,!
0#!
0x
1o
1P
0C!
0<!
0;!
13!
12!
1*!
0)!
1!!
0~
0v
0c
1V
1e
1]
1D!
1C!
1<!
03!
0*!
1)!
0!!
0d
0f
0D!
1*!
#350000
0!
0N
0O
#355000
1!
1N
1O
1)"
0+"
0-"
1."
1M
0L
0J
1H
1(!
0t
0b
1R
1\
12
04
06
17
1#!
0o
0]
0P
02!
0*!
1~
1v
1l
1d
1c
0V
1]
13!
0)!
1!!
0u
1m
0l
0d
12!
1*!
0v
1u
0m
03!
1v
#360000
0!
0N
0O
#365000
1!
1N
1O
1*"
1+"
0."
0M
1J
1I
1}
1t
0R
0\
13
14
07
1x
1o
1P
1)!
0!!
0~
0v
0c
1V
0]
02!
0*!
1!!
1l
1d
13!
0u
1m
1~
1v
0!!
#370000
0!
0N
0O
#375000
1!
1N
1O
1("
0)"
0*"
1,"
1-"
1."
1M
1L
1K
0I
0H
1G
11!
0(!
0}
1g
1b
1R
1\
11
02
03
15
16
17
1,!
0#!
0x
1f
1]
0P
1;!
03!
12!
1*!
0)!
1!!
1u
0m
0l
0d
1c
0V
0e
0]
0C!
0<!
0;!
13!
0*!
0~
0v
1m
1d
1n
0f
1D!
1C!
1<!
1)!
0!!
0w
0o
0D!
1*!
1x
#380000
0!
0N
0O
#385000
1!
1N
1O
1)"
0+"
0."
0M
0J
1H
1(!
0t
1w
0R
0\
12
04
07
1#!
1o
1P
02!
0*!
1~
1v
0c
1V
1e
0x
1]
1;!
03!
0)!
1!!
0d
0n
1f
0C!
0<!
12!
1*!
0o
1D!
0;!
13!
1C!
1<!
0D!
#390000
0!
0N
0O
#395000
1!
1N
1O
1*"
1+"
0-"
1."
1M
0L
1J
1I
1}
1t
0b
1R
1\
13
14
06
17
1x
1o
0]
0P
1)!
0!!
0~
0v
1l
1d
1c
0V
1]
02!
0*!
1!!
0m
0l
0d
1;!
03!
1m
0C!
0<!
1D!
#400000
0!
0N
0O
#405000
1!
1N
1O
1&"
0'"
0("
0)"
0+"
0."
0M
0J
0H
0G
0F
1E
1B!
0:!
01!
0(!
0t
0R
0\
1/
00
01
02
04
07
1>!
05!
0,!
0#!
0o
1P
1K!
0D!
1C!
1<!
0;!
13!
12!
1*!
1~
1v
0c
1V
0]
1L!
0K!
1D!
0<!
03!
0!!
1l
1d
0L!
0m
#410000
0!
0N
0O
#415000
1!
1N
1O
1)"
0*"
1+"
0,"
1-"
1."
1M
1L
0K
1J
0I
1H
1(!
0}
1t
0g
1b
1R
1\
12
03
14
05
16
17
1#!
0x
1o
0f
1]
0P
02!
0*!
0)!
1!!
0~
0v
0u
1m
0l
0d
1c
0V
0e
0]
13!
12!
1*!
1)!
0!!
1~
1v
1u
0m
1d
1f
03!
02!
0*!
0)!
1!!
0~
0v
13!
12!
1*!
1)!
0!!
03!
02!
0*!
13!
#420000
0!
0N
0O
#425000
1!
1N
1O
1("
0)"
0+"
0."
0M
0J
0H
1G
11!
0(!
0t
0R
0\
11
02
04
07
1,!
0#!
0o
1P
1;!
03!
12!
1*!
1~
1v
0c
1V
1e
1]
1<!
0;!
13!
0)!
1!!
0d
0f
0<!
0*!
#430000
0!
0N
0O
#435000
1!
1N
1O
1*"
1+"
0-"
1."
1M
0L
1J
1I
1}
1t
0b
1R
1\
13
14
06
17
1x
1o
0]
0P
1)!
0!!
0~
0v
1l
1d
1c
0V
1]
1*!
1!!
0u
1m
0l
0d
1~
1v
1u
0m
0!!
0~
0v
1!!
#440000
0!
0N
0O
#445000
1!
1N
1O
1)"
0+"
0."
0M
0J
1H
1(!
0t
0R
0\
12
04
07
1#!
0o
1P
02!
0*!
1~
1v
0c
1V
0]
1;!
03!
0!!
1l
1d
1<!
0u
1m
0v
#450000
0!
0N
0O
#455000
1!
1N
1O
1'"
0("
0)"
0*"
1,"
1-"
1."
1M
1L
1K
0I
0H
0G
1F
1:!
01!
0(!
0}
1g
1b
1R
1\
10
01
02
03
15
16
17
15!
0,!
0#!
0x
1f
1]
0P
0C!
0<!
0;!
13!
12!
1*!
0)!
1!!
1u
0m
0l
0d
1c
0V
0e
0]
1K!
0D!
1C!
1<!
03!
0*!
1v
1m
1d
1n
0f
1L!
0K!
1D!
1o
0L!
#460000
0!
0N
0O
#465000
1!
1N
1O
1*"
1+"
0."
0M
1J
1I
1}
1t
0w
0R
0\
13
14
07
1x
0o
1P
1)!
0!!
0~
0v
1"!
0c
1V
1e
0x
1]
1*!
1!!
0d
0n
1#!
1f
1w
1o
0"!
1x
0#!
#470000
0!
0N
0O
#475000
1!
1N
1O
1)"
0+"
0-"
1."
1M
0L
0J
1H
1(!
0t
0b
1R
1\
12
04
06
17
1#!
0o
0]
0P
02!
0*!
1~
1v
1l
1d
1c
0V
1]
13!
0!!
0m
0l
0d
1m
#480000
0!
0N
0O
#485000
1!
1N
1O
1("
0)"
0*"
1+"
0."
0M
1J
0I
0H
1G
11!
0(!
0}
1t
0R
0\
11
02
03
14
07
1,!
0#!
0x
1o
1P
1;!
03!
12!
1*!
0)!
1!!
0~
0v
0c
1V
0]
0C!
0<!
0;!
13!
0*!
1)!
0!!
1l
1d
1K!
0D!
1C!
1<!
1*!
0m
1L!
0K!
1D!
0L!
#490000
0!
0N
0O
#495000
1!
1N
1O
1)"
0+"
0,"
1-"
1."
1M
1L
0K
0J
1H
1(!
0t
0g
1b
1R
1\
12
04
05
16
17
1#!
0o
0f
1]
0P
02!
0*!
1~
1v
0u
1m
0l
0d
1c
0V
0e
0]
1;!
03!
0)!
1!!
0v
1u
0m
1d
1f
0C!
0<!
12!
1*!
1v
1K!
0D!
0;!
13!
1L!
1C!
1<!
0K!
1D!
0L!
#500000
0!
0N
0O
#505000
1!
1N
1O
1*"
1+"
0."
0M
1J
1I
1}
1t
0R
0\
13
14
07
1x
1o
1P
1)!
0!!
0~
0v
0c
1V
1e
1]
02!
0*!
1!!
0d
0f
1;!
03!
0C!
0<!
1K!
0D!
1L!
#510000
0!
0N
0O
#515000
1!
1N
1O
1%"
0&"
0'"
0("
0)"
0+"
0-"
1."
1M
0L
0J
0H
0G
0F
0E
1D
1G!
0B!
0:!
01!
0(!
0t
0b
1R
1\
1.
0/
00
01
02
04
06
17
1F!
0>!
05!
0,!
0#!
0o
0]
0P
0S!
0L!
0K!
1D!
1C!
1<!
0;!
13!
12!
1*!
1~
1v
1l
1d
1c
0V
1]
1T!
1S!
1L!
0D!
0<!
03!
0!!
0u
1m
0l
0d
0T!
0v
1u
0m
1v
#520000
0!
0N
0O
#525000
1!
1N
1O
1)"
0*"
1+"
0."
0M
1J
0I
1H
1(!
0}
1t
0R
0\
12
03
14
07
1#!
0x
1o
1P
02!
0*!
0)!
1!!
0~
0v
0c
1V
0]
13!
12!
1*!
1)!
0!!
1l
1d
03!
02!
0*!
0u
1m
13!
1~
1v
0)!
1!!
12!
1*!
03!
#530000
0!
0N
0O
#535000
1!
1N
1O
1*"
1,"
1-"
1."
1M
1L
1K
1I
1}
1g
1b
1R
1\
13
15
16
17
1x
1f
1]
0P
1)!
0!!
1u
0m
0l
0d
1c
0V
0e
0]
02!
0*!
0~
0v
1m
1d
1n
0f
13!
1!!
0w
0o
1"!
0x
0+!
0#!
1,!
#540000
0!
0N
0O
#545000
1!
1N
1O
1("
0)"
0+"
0."
0M
0J
0H
1G
11!
14!
0(!
1+!
0t
1w
0R
0\
11
02
04
07
0,!
1#!
1o
1P
1;!
03!
12!
1*!
04!
1~
1v
0"!
0c
1V
1e
15!
1,!
1x
1]
1<!
0;!
13!
0!!
0d
0n
05!
0#!
1f
0<!
0o
#550000
0!
0N
0O
#555000
1!
1N
1O
1)"
0*"
1+"
0-"
1."
1M
0L
1J
0I
1H
1(!
0}
1t
0b
1R
1\
12
03
14
06
17
1#!
0x
1o
0]
0P
02!
0*!
0)!
1!!
0~
0v
1l
1d
1c
0V
1]
1;!
03!
12!
1*!
1)!
0!!
0m
0l
0d
1<!
0;!
13!
02!
0*!
1m
0<!
1;!
03!
1<!
#560000
0!
0N
0O
#565000
1!
1N
1O
1'"
0("
0)"
0+"
0."
0M
0J
0H
0G
1F
1:!
01!
0(!
0t
0R
0\
10
01
02
04
07
15!
0,!
0#!
0o
1P
0C!
0<!
0;!
13!
12!
1*!
1~
1v
0c
1V
0]
1D!
1C!
1<!
03!
0)!
1!!
1l
1d
0D!
0*!
0m
#570000
0!
0N
0O
#575000
1!
1N
1O
1*"
1+"
0,"
1-"
1."
1M
1L
0K
1J
1I
1}
1t
0g
1b
1R
1\
13
14
05
16
17
1x
1o
0f
1]
0P
1)!
0!!
0~
0v
0u
1m
0l
0d
1c
0V
0e
0]
1*!
1!!
1~
1v
1u
0m
1d
1f
0!!
0~
0v
1!!
#580000
0!
0N
0O
#585000
1!
1N
1O
1)"
0+"
0."
0M
0J
1H
1(!
0t
0R
0\
12
04
07
1#!
0o
1P
02!
0*!
1~
1v
0c
1V
1e
1]
13!
0!!
0d
0f
#590000
0!
0N
0O
#595000
1!
1N
1O
1("
0)"
0*"
1+"
0-"
1."
1M
0L
1J
0I
0H
1G
11!
0(!
0}
1t
0b
1R
1\
11
02
03
14
06
17
1,!
0#!
0x
1o
0]
0P
1;!
03!
12!
1*!
0)!
1!!
0~
0v
1l
1d
1c
0V
1]
0C!
0<!
0;!
13!
0*!
1)!
0!!
0u
1m
0l
0d
1D!
1C!
1<!
1*!
1~
1v
1u
0m
0D!
0)!
1!!
0~
0v
0*!
1)!
0!!
1*!
#600000
0!
0N
0O
#605000
1!
1N
1O
1)"
0+"
0."
0M
0J
1H
1(!
0t
0R
0\
12
04
07
1#!
0o
1P
02!
0*!
1~
1v
0c
1V
0]
1;!
03!
0)!
1!!
1l
1d
0C!
0<!
12!
1*!
0u
1m
1D!
0;!
13!
0v
1C!
1<!
0D!
#610000
0!
0N
0O
#615000
1!
1N
1O
1*"
1,"
1-"
1."
1M
1L
1K
1I
1}
1g
1b
1R
1\
13
15
16
17
1x
1f
1]
0P
1)!
0!!
1u
0m
0l
0d
1c
0V
0e
0]
02!
0*!
1v
1m
1d
1n
0f
1;!
03!
1o
0C!
0<!
1D!
